module knocked-down

go 1.19

require (
	github.com/fvbock/endless v0.0.0-20170109170031-447134032cb6
	github.com/gin-contrib/pprof v1.4.0
	github.com/gin-gonic/gin v1.8.1
	github.com/gorilla/websocket v1.5.0
	gopkg.in/natefinch/lumberjack.v2 v2.0.0
	gopkg.in/yaml.v3 v3.0.1
)

require (
	github.com/gin-contrib/sse v0.1.0 // indirect
	github.com/go-playground/locales v0.14.0 // indirect
	github.com/go-playground/universal-translator v0.18.0 // indirect
	github.com/go-playground/validator/v10 v10.10.0 // indirect
	github.com/leodido/go-urn v1.2.1 // indirect
	github.com/mattn/go-isatty v0.0.14 // indirect
	github.com/pelletier/go-toml/v2 v2.0.1 // indirect
	github.com/ugorji/go/codec v1.2.7 // indirect
	golang.org/x/crypto v0.0.0-20210711020723-a769d52b0f97 // indirect
	golang.org/x/net v0.0.0-20210226172049-e18ecbb05110 // indirect
	golang.org/x/sys v0.0.0-20210806184541-e5e7981a1069 // indirect
	golang.org/x/text v0.3.6 // indirect
	google.golang.org/protobuf v1.28.0 // indirect
	gopkg.in/yaml.v2 v2.4.0 // indirect
)
